%YAML 1.1
%TAG !u! tag:unity3d.com,2011:
--- !u!78 &1
TagManager:
  serializedVersion: 2
  tags:
  - LevelMark
  - Enemy
  - Projectile
  - Wall
  - EnemyHands
  - LevelMarkFirstFloor
  - MissingWheel
  - LastLevelMark
  - WinMark
  - Granade
  layers:
  - Default
  - TransparentFX
  - Ignore Raycast
  - Ground
  - Water
  - UI
  - Player
  - 
  - 
  - Elevator
  - 
  - 
  - 
  - 
  - 
  - 
  - 
  - 
  - 
  - 
  - 
  - 
  - 
  - 
  - 
  - 
  - 
  - 
  - 
  - 
  - 
  - 
  m_SortingLayers:
  - name: Default
    uniqueID: 0
    locked: 0
