%YAML 1.1
%TAG !u! tag:unity3d.com,2011:
--- !u!74 &7400000
AnimationClip:
  m_ObjectHideFlags: 0
  m_CorrespondingSourceObject: {fileID: 0}
  m_PrefabInstance: {fileID: 0}
  m_PrefabAsset: {fileID: 0}
  m_Name: runBob
  serializedVersion: 6
  m_Legacy: 0
  m_Compressed: 0
  m_UseHighQualityCurve: 1
  m_RotationCurves: []
  m_CompressedRotationCurves: []
  m_EulerCurves: []
  m_PositionCurves: []
  m_ScaleCurves: []
  m_FloatCurves: []
  m_PPtrCurves:
  - curve:
    - time: 0
      value: {fileID: 21300000, guid: 30537f99f877ef94eae4b239d55152c8, type: 3}
    - time: 0.083333336
      value: {fileID: 21300000, guid: 5ce6decfc4a28a840b7d332a34e11588, type: 3}
    - time: 0.16666667
      value: {fileID: 21300000, guid: c9b9b163aa73133468ac76437215f4e4, type: 3}
    - time: 0.25
      value: {fileID: 21300000, guid: 03f448381d83f894b8d7dc13771d8f27, type: 3}
    - time: 0.33333334
      value: {fileID: 21300000, guid: ae3b4fcbb575e124c9062cafe56d82b5, type: 3}
    - time: 0.41666666
      value: {fileID: 21300000, guid: 754350609eb867949a544033f626550c, type: 3}
    - time: 0.5
      value: {fileID: 21300000, guid: bd1f2dee4ef730c46ad2267a8f6502cc, type: 3}
    - time: 0.5833333
      value: {fileID: 21300000, guid: 3d6b2a458a53398428b65be51feb9bbe, type: 3}
    - time: 0.6666667
      value: {fileID: 21300000, guid: 39bbdc53307166f44ac86f7491fc129f, type: 3}
    - time: 0.75
      value: {fileID: 21300000, guid: 98588211aef114542b1b119beec5ea19, type: 3}
    - time: 0.8333333
      value: {fileID: 21300000, guid: 06a73e835e61062459e06faad9e305a3, type: 3}
    - time: 0.9166667
      value: {fileID: 21300000, guid: b265dd901f531bf49afc24b6a7cad47d, type: 3}
    - time: 1
      value: {fileID: 21300000, guid: 2a2aea199df6bcd489fbd1e1be0c59fd, type: 3}
    attribute: m_Sprite
    path: 
    classID: 212
    script: {fileID: 0}
  m_SampleRate: 12
  m_WrapMode: 0
  m_Bounds:
    m_Center: {x: 0, y: 0, z: 0}
    m_Extent: {x: 0, y: 0, z: 0}
  m_ClipBindingConstant:
    genericBindings:
    - serializedVersion: 2
      path: 0
      attribute: 0
      script: {fileID: 0}
      typeID: 212
      customType: 23
      isPPtrCurve: 1
    pptrCurveMapping:
    - {fileID: 21300000, guid: 30537f99f877ef94eae4b239d55152c8, type: 3}
    - {fileID: 21300000, guid: 5ce6decfc4a28a840b7d332a34e11588, type: 3}
    - {fileID: 21300000, guid: c9b9b163aa73133468ac76437215f4e4, type: 3}
    - {fileID: 21300000, guid: 03f448381d83f894b8d7dc13771d8f27, type: 3}
    - {fileID: 21300000, guid: ae3b4fcbb575e124c9062cafe56d82b5, type: 3}
    - {fileID: 21300000, guid: 754350609eb867949a544033f626550c, type: 3}
    - {fileID: 21300000, guid: bd1f2dee4ef730c46ad2267a8f6502cc, type: 3}
    - {fileID: 21300000, guid: 3d6b2a458a53398428b65be51feb9bbe, type: 3}
    - {fileID: 21300000, guid: 39bbdc53307166f44ac86f7491fc129f, type: 3}
    - {fileID: 21300000, guid: 98588211aef114542b1b119beec5ea19, type: 3}
    - {fileID: 21300000, guid: 06a73e835e61062459e06faad9e305a3, type: 3}
    - {fileID: 21300000, guid: b265dd901f531bf49afc24b6a7cad47d, type: 3}
    - {fileID: 21300000, guid: 2a2aea199df6bcd489fbd1e1be0c59fd, type: 3}
  m_AnimationClipSettings:
    serializedVersion: 2
    m_AdditiveReferencePoseClip: {fileID: 0}
    m_AdditiveReferencePoseTime: 0
    m_StartTime: 0
    m_StopTime: 1.0833334
    m_OrientationOffsetY: 0
    m_Level: 0
    m_CycleOffset: 0
    m_HasAdditiveReferencePose: 0
    m_LoopTime: 1
    m_LoopBlend: 0
    m_LoopBlendOrientation: 0
    m_LoopBlendPositionY: 0
    m_LoopBlendPositionXZ: 0
    m_KeepOriginalOrientation: 0
    m_KeepOriginalPositionY: 1
    m_KeepOriginalPositionXZ: 0
    m_HeightFromFeet: 0
    m_Mirror: 0
  m_EditorCurves: []
  m_EulerEditorCurves: []
  m_HasGenericRootTransform: 0
  m_HasMotionFloatCurves: 0
  m_Events: []
